<svg width="385" height="290" viewBox="0 0 385 290" fill="none" xmlns="http://www.w3.org/2000/svg">
<path d="M368 165.262L167 58.7617" stroke="#B0D1DD" stroke-width="1.76536" stroke-miterlimit="10" style="mix-blend-mode:multiply"/>
<path d="M384 173.262L197.5 288.877" stroke="#B0D1DD" stroke-width="1.76536" stroke-miterlimit="10" style="mix-blend-mode:multiply"/>
<path d="M335 11.2617L370 164.262" stroke="#B0D1DD" stroke-width="1.76536" stroke-miterlimit="10" style="mix-blend-mode:multiply"/>
<path d="M143.5 57.2617L121.5 143.262" stroke="#B0D1DD" stroke-width="1.76536" stroke-miterlimit="10" style="mix-blend-mode:multiply"/>
<path d="M156 160.762L195.5 281.377" stroke="#B0D1DD" stroke-width="1.76536" stroke-miterlimit="10" style="mix-blend-mode:multiply"/>
<path d="M1 114.262L129.5 60.2617" stroke="#B0D1DD" stroke-width="1.76536" stroke-miterlimit="10" style="mix-blend-mode:multiply"/>
<path d="M325 1.26172L192.5 134.762" stroke="#B0D1DD" stroke-width="1.76536" stroke-miterlimit="10" style="mix-blend-mode:multiply"/>
</svg>
