<svg width="89" height="91" viewBox="0 0 89 91" fill="none" xmlns="http://www.w3.org/2000/svg">
<path d="M40.5686 29.8711L16.1941 29.8711C14.2093 29.8711 12.7824 31.7904 13.3142 33.7228C14.9876 39.8334 23.8216 81.7718 23.8216 81.7718H44.2138C47.3271 81.7718 50.2069 80.8186 52.6067 79.1996L59.6506 86.2894L84.7127 61.0637L68.8478 45.0953C61.8688 38.0707 50.4534 29.8711 40.5816 29.8711H40.5686Z" fill="#EC5432"/>
<path d="M25.6897 43.3594L9.61727 43.3594C5.84239 43.3594 2.79395 46.4408 2.79395 50.2272C2.79395 54.0268 5.85536 57.0951 9.61727 57.0951H25.6897C29.4646 57.0951 32.513 54.0137 32.513 50.2272C32.513 46.4277 29.4516 43.3594 25.6897 43.3594Z" fill="#EC8F32"/>
<path d="M27.7786 57.0977L11.7061 57.0977C7.93126 57.0977 4.88281 60.1791 4.88281 63.9655C4.88281 67.765 7.94423 70.8334 11.7061 70.8334H27.7786C31.5535 70.8334 34.6019 67.752 34.6019 63.9655C34.6019 60.166 31.5405 57.0977 27.7786 57.0977Z" fill="#EC8F32"/>
<path d="M23.6018 29.625L7.52938 29.625C3.7545 29.625 0.706055 32.7064 0.706055 36.4929C0.706055 40.2924 3.76747 43.3607 7.52938 43.3607H23.6018C27.3767 43.3607 30.4252 40.2793 30.4252 36.4929C30.4252 32.6933 27.3637 29.625 23.6018 29.625Z" fill="#EC8F32"/>
<path d="M27.7791 69.6211H17.129C13.5098 69.6211 10.5781 72.5719 10.5781 76.2148C10.5781 79.8576 13.5098 82.8084 17.129 82.8084H27.7791C31.3984 82.8084 34.3301 79.8576 34.3301 76.2148C34.3301 72.5719 31.3984 69.6211 27.7791 69.6211Z" fill="#EC8F32"/>
<path d="M37.041 47.3837L54.3458 64.8014C57.057 69.3321 56.4862 75.286 52.6075 79.203L63.9192 90.5885L88.9813 65.3628L63.6338 39.8499L47.7819 23.8945L37.041 47.3706V47.3837Z" fill="#EC8F32"/>
<path d="M68.7572 45.0201L58.7946 34.9925C51.7378 27.8896 47.7813 21.9618 47.7813 11.9212V3.08174C47.7813 1.08406 45.8744 -0.352186 43.9545 0.183142C37.8706 1.86746 33.4082 7.46882 33.4082 14.1278L33.4082 34.7052" fill="#EC8F32"/>
<path d="M77.812 64.8773C68.044 69.4341 56.3043 69.0294 46.9125 62.514C37.5596 56.0248 32.7988 45.3313 33.4085 34.7031H49.5069" fill="#EC8F32"/>
</svg>
